<?xml version="1.0" encoding="UTF-8" standalone="no"?>
<svg
   xmlns:dc="http://purl.org/dc/elements/1.1/"
   xmlns:cc="http://creativecommons.org/ns#"
   xmlns:rdf="http://www.w3.org/1999/02/22-rdf-syntax-ns#"
   xmlns:svg="http://www.w3.org/2000/svg"
   xmlns="http://www.w3.org/2000/svg"
   xmlns:sodipodi="http://sodipodi.sourceforge.net/DTD/sodipodi-0.dtd"
   xmlns:inkscape="http://www.inkscape.org/namespaces/inkscape"
   width="25.762987in"
   height="11.407324in"
   viewBox="0 0 1854.9364 821.32732"
   version="1.1"
   id="svg924"
   sodipodi:docname="2019_06_10_abaisseur_noir.svg"
   inkscape:version="0.92.4 (unknown)">
  <metadata
     id="metadata930">
    <rdf:RDF>
      <cc:Work
         rdf:about="">
        <dc:format>image/svg+xml</dc:format>
        <dc:type
           rdf:resource="http://purl.org/dc/dcmitype/StillImage" />
        <dc:title></dc:title>
      </cc:Work>
    </rdf:RDF>
  </metadata>
  <defs
     id="defs928" />
  <sodipodi:namedview
     pagecolor="#ffffff"
     bordercolor="#666666"
     borderopacity="1"
     objecttolerance="10"
     gridtolerance="10"
     guidetolerance="10"
     inkscape:pageopacity="0"
     inkscape:pageshadow="2"
     inkscape:window-width="1920"
     inkscape:window-height="1021"
     id="namedview926"
     showgrid="false"
     fit-margin-top="0"
     fit-margin-left="0"
     fit-margin-right="0"
     fit-margin-bottom="0"
     inkscape:zoom="0.070944443"
     inkscape:cx="-2223.1036"
     inkscape:cy="722.11647"
     inkscape:window-x="0"
     inkscape:window-y="25"
     inkscape:window-maximized="1"
     inkscape:current-layer="svg924" />
  <path
     style="fill:#000000;fill-opacity:1;stroke:#0a0606;stroke-width:1.52475047;stroke-miterlimit:4;stroke-dasharray:none;stroke-opacity:1"
     d="m 471.14298,627.76793 c 5.369,-81.3484 31.8277,-166.45975 101.6842,-215.34425 57.5553,-53.73093 140.2031,-53.78139 211.2927,-31.65201 32.0638,20.01017 52.1721,-18.97852 77.4308,-32.80323 17.5478,-16.88228 51.8096,-26.61004 39.0836,-56.45114 -8.0098,-19.87728 6.7791,-61.09575 -18.5074,-64.80091 -58.375,-9.71928 -116.4153,-23.89709 -175.9853,-17.69843 -53.4922,-0.21734 -106.8326,0.93267 -158.6742,15.5927 -31.3362,8.04479 -67.4937,6.14215 -89.169,34.11991 -23.754,23.21331 -55.7395,40.54488 -74.1009,67.61146 -13.0182,33.4753 -26.0363,66.9506 -39.0545,100.4259 -62.4346,0.66079 -126.8716,23.52476 -187.1599,0.38003 C 120.01038,415.23004 78.250384,409.05828 42.625184,393.57868 30.143584,372.49254 3.964984,355.57979 0.76628404,331.66519 5.558484,269.3661 10.350784,207.06702 15.142984,144.76793 37.377484,119.05271 56.190384,87.92177 95.117584,89.01012 162.35028,64.80431 230.52188,52.4014 302.25238,57.29918 c 206.2887,-2.18067 412.5924,-2.33612 618.8906,-2.53125 -1.461,-31.13026 10.2182,-47.2229299 42.564,-39.6648 L 1752.143,0.76793011 C 1778.3162,25.63659 1811.8552,46.57884 1833.6062,73.80478 l 20.5368,178.96315 c -18.9069,24.54168 -33.2736,55.34048 -54.9031,76.12984 -129.4815,41.46513 -263.7971,65.51961 -399.2395,76.22563 -91.0355,9.38683 -183.0179,13.41947 -274.5184,10.85809 -41.0138,-11.77027 -45.479,20.54672 -59.4159,36.83395 l -33.2074,24.33929 c -25.9171,22.585 -80.90632,51.7772 -125.32382,80.9695 30.1717,72.9534 6.3563,174.2901 -42.0598,220.0473 -39.0316,47.1151 -141.2189,46.2815 -198.3554,38.1263 -96.2025,-11.7028 -155.9261,-67.1885 -167.2589,-103.6624 -3.127,-10.5158 -26.7592,-74.0748 -28.7178,-84.8675 z"
     id="path934"
     inkscape:connector-curvature="0"
     sodipodi:nodetypes="cccccccccccccccccccccccccccccccc" />
  <path
     style="fill:none;stroke:#0a0606;stroke-width:9.69975281;stroke-miterlimit:4;stroke-dasharray:none;stroke-opacity:1"
     d="m 344.42878,454.8368 -14.2858,250.93113 -135,15 -239.999996,-9 c 0,0 -264.000004,-3 -270.000004,-3 -6,0 -249,-9 -249,-9 0,0 -102,-15 -105,-15 -3,0 -183,-45 -183,-45"
     id="Sans nom"
     inkscape:connector-curvature="0" />
  <ellipse
     style="fill:#ffffff;fill-rule:evenodd;stroke:#000000;stroke-width:0.75000024px;stroke-linecap:butt;stroke-linejoin:miter;stroke-opacity:1"
     id="path936"
     cx="711.89789"
     cy="604.43188"
     rx="44.929539"
     ry="40.965168" />
  <rect
     style="opacity:0.97000002;vector-effect:none;fill:#ffffff;fill-opacity:1;fill-rule:nonzero;stroke:#0a0606;stroke-width:9.69975281;stroke-linecap:square;stroke-linejoin:round;stroke-miterlimit:4;stroke-dasharray:none;stroke-dashoffset:0;stroke-opacity:1"
     id="rect939"
     width="103.07365"
     height="42.286621"
     x="1425.4845"
     y="167.02965" />
  <rect
     style="opacity:0.97000002;vector-effect:none;fill:#ffffff;fill-opacity:1;fill-rule:nonzero;stroke:#0a0606;stroke-width:9.69975281;stroke-linecap:square;stroke-linejoin:round;stroke-miterlimit:4;stroke-dasharray:none;stroke-dashoffset:0;stroke-opacity:1"
     id="rect941"
     width="92.501999"
     height="113.6453"
     x="1605.2028"
     y="130.02892" />
</svg>
